<svg width="236" height="236" viewBox="0 0 236 236" fill="none" xmlns="http://www.w3.org/2000/svg">
<g filter="url(#filter0_di)">
<circle cx="118" cy="102" r="102" fill="white"/>
<path d="M118 48L118.06 110.86C114.52 108.835 110.44 107.583 106.06 107.583C92.74 107.583 82 118.249 82 131.417C82 144.585 92.74 155.25 106.06 155.25C119.38 155.25 130 144.585 130 131.417V71.8333H154V48H118ZM106.06 143.333C99.46 143.333 94.06 137.971 94.06 131.417C94.06 124.863 99.46 119.5 106.06 119.5C112.66 119.5 118.06 124.863 118.06 131.417C118.06 137.971 112.66 143.333 106.06 143.333Z" fill="#546E7A"/>
</g>
<defs>
<filter id="filter0_di" x="0" y="0" width="236" height="236" filterUnits="userSpaceOnUse" color-interpolation-filters="sRGB">
<feFlood flood-opacity="0" result="BackgroundImageFix"/>
<feColorMatrix in="SourceAlpha" type="matrix" values="0 0 0 0 0 0 0 0 0 0 0 0 0 0 0 0 0 0 127 0"/>
<feOffset dy="16"/>
<feGaussianBlur stdDeviation="8"/>
<feColorMatrix type="matrix" values="0 0 0 0 0.160784 0 0 0 0 0.411765 0 0 0 0 1 0 0 0 0.2 0"/>
<feBlend mode="normal" in2="BackgroundImageFix" result="effect1_dropShadow"/>
<feBlend mode="normal" in="SourceGraphic" in2="effect1_dropShadow" result="shape"/>
<feColorMatrix in="SourceAlpha" type="matrix" values="0 0 0 0 0 0 0 0 0 0 0 0 0 0 0 0 0 0 127 0" result="hardAlpha"/>
<feOffset dy="-4"/>
<feComposite in2="hardAlpha" operator="arithmetic" k2="-1" k3="1"/>
<feColorMatrix type="matrix" values="0 0 0 0 0.160784 0 0 0 0 0.411765 0 0 0 0 1 0 0 0 0.2 0"/>
<feBlend mode="normal" in2="shape" result="effect2_innerShadow"/>
</filter>
</defs>
</svg>
